20 50 2
10 13 99
12 19 31
16 17 7
18 19 58
13 20 99
17 20 68
3 4 52
11 14 3
3 7 95
12 16 45
4 10 76
19 20 34
9 19 0
2 11 100
4 11 40
17 19 0
11 19 53
12 20 80
13 19 97
7 12 0
2 10 17
17 18 45
4 9 17
5 6 9
5 13 52
18 20 97
11 15 89
15 17 25
1 10 88
3 13 0
8 11 8
7 11 56
8 15 16
12 14 67
7 10 16
14 19 56
7 13 32
14 17 0
7 15 74
11 18 3
9 14 5
7 17 32
11 17 81
14 15 77
10 15 97
9 15 0
3 11 85
2 9 55
10 11 82
4 8 3